Simulation/vDFT/xlc_sim/test.vcd
$date
	Sun Aug 11 15:02:19 2013
$end
$version
	Icarus Verilog
$end
$timescale
	1s
$end
$scope module fft_r22sdf_tb $end
$var wire 8 ! d_in_i [7:0] $end
$var wire 1 " d_in_nd $end
$var wire 8 # d_in_q [7:0] $end
$var wire 16 $ d_out_i [15:0] $end
$var wire 1 % d_out_nd $end
$var wire 16 & d_out_q [15:0] $end
$var wire 1 ' done $end
$var wire 1 ( rst_n $end
$var reg 1 ) clk $end
$scope function clogb2 $end
$var integer 32 * clogb2 [31:0] $end
$var integer 32 + r [31:0] $end
$var integer 32 , v [31:0] $end
$upscope $end
$scope module dut_u1 $end
$var wire 8 - bf0_c_out [7:0] $end
$var wire 1 . bf0_m_out $end
$var wire 10 / bf0_z_im [9:0] $end
$var wire 1 0 bf0_z_nd $end
$var wire 10 1 bf0_z_re [9:0] $end
$var wire 8 2 bf1_c_out [7:0] $end
$var wire 1 3 bf1_m_out $end
$var wire 12 4 bf1_z_im [11:0] $end
$var wire 1 5 bf1_z_nd $end
$var wire 12 6 bf1_z_re [11:0] $end
$var wire 8 7 bf2_c_out [7:0] $end
$var wire 1 8 bf2_m_out $end
$var wire 14 9 bf2_z_im [13:0] $end
$var wire 1 : bf2_z_nd $end
$var wire 14 ; bf2_z_re [13:0] $end
$var wire 8 < bf3_c_out [7:0] $end
$var wire 1 = bf3_m_out $end
$var wire 16 > bf3_z_im [15:0] $end
$var wire 1 ? bf3_z_nd $end
$var wire 16 @ bf3_z_re [15:0] $end
$var wire 8 A bf_out_cntr [7:0] $end
$var wire 16 B bf_out_im [15:0] $end
$var wire 1 C bf_out_meta $end
$var wire 1 D bf_out_nd $end
$var wire 16 E bf_out_re [15:0] $end
$var wire 1 F clk $end
$var wire 8 G din_im [7:0] $end
$var wire 1 H din_meta $end
$var wire 1 " din_nd $end
$var wire 8 I din_re [7:0] $end
$var wire 1 ( rst_n $end
$var wire 10 J tf0_im [9:0] $end
$var wire 10 K tf0_re [9:0] $end
$var wire 10 L tf1_im [9:0] $end
$var wire 10 M tf1_re [9:0] $end
$var wire 10 N tf2_im [9:0] $end
$var wire 10 O tf2_re [9:0] $end
$var wire 8 P tm0_c_out [7:0] $end
$var wire 1 Q tm0_m_out $end
$var wire 10 R tm0_z_im [9:0] $end
$var wire 1 S tm0_z_nd $end
$var wire 10 T tm0_z_re [9:0] $end
$var wire 8 U tm1_c_out [7:0] $end
$var wire 1 V tm1_m_out $end
$var wire 12 W tm1_z_im [11:0] $end
$var wire 1 X tm1_z_nd $end
$var wire 12 Y tm1_z_re [11:0] $end
$var wire 8 Z tm2_c_out [7:0] $end
$var wire 1 [ tm2_m_out $end
$var wire 14 \ tm2_z_im [13:0] $end
$var wire 1 ] tm2_z_nd $end
$var wire 14 ^ tm2_z_re [13:0] $end
$var reg 8 _ ctrl_cntr [7:0] $end
$var reg 16 ` dout_im [15:0] $end
$var reg 1 a dout_meta $end
$var reg 1 b dout_nd $end
$var reg 16 c dout_re [15:0] $end
$var reg 1 d oe $end
$scope module fft_r22sdf_bf2_s0 $end
$var wire 8 e bf2i_ccntr [7:0] $end
$var wire 1 f bf2i_meta $end
$var wire 9 g bf2i_z_im [8:0] $end
$var wire 1 h bf2i_z_nd $end
$var wire 9 i bf2i_z_re [8:0] $end
$var wire 8 j c_in [7:0] $end
$var wire 8 k c_out [7:0] $end
$var wire 1 F clk $end
$var wire 1 H m_in $end
$var wire 1 . m_out $end
$var wire 1 ( rst_n $end
$var wire 8 l x_im [7:0] $end
$var wire 1 " x_nd $end
$var wire 8 m x_re [7:0] $end
$var wire 10 n z_im [9:0] $end
$var wire 1 0 z_nd $end
$var wire 10 o z_re [9:0] $end
$scope module fft_r22sdf_bf2i_u1 $end
$var wire 1 F clk $end
$var wire 9 p m_in [8:0] $end
$var wire 1 ( rst_n $end
$var wire 1 q sel $end
$var wire 8 r x_im [7:0] $end
$var wire 1 " x_nd $end
$var wire 8 s x_re [7:0] $end
$var wire 9 t xa_im [8:0] $end
$var wire 9 u xa_re [8:0] $end
$var wire 9 v xb_im [8:0] $end
$var wire 9 w xb_re [8:0] $end
$var integer 32 x i [31:0] $end
$var integer 32 y k [31:0] $end
$var reg 9 z m_out [8:0] $end
$var reg 9 { z_im [8:0] $end
$var reg 1 | z_nd $end
$var reg 9 } z_re [8:0] $end
$var reg 9 ~ za_im [8:0] $end
$var reg 9 !" za_re [8:0] $end
$var reg 9 "" zb_im [8:0] $end
$var reg 9 #" zb_re [8:0] $end
$upscope $end
$scope module fft_r22sdf_bf2ii_u1 $end
$var wire 1 F clk $end
$var wire 9 $" m_in [8:0] $end
$var wire 1 ( rst_n $end
$var wire 1 %" sel $end
$var wire 1 &" tgl $end
$var wire 9 '" x_im [8:0] $end
$var wire 1 h x_nd $end
$var wire 9 (" x_re [8:0] $end
$var wire 10 )" xa_im [9:0] $end
$var wire 10 *" xa_re [9:0] $end
$var wire 10 +" xb_im [9:0] $end
$var wire 10 ," xb_re [9:0] $end
$var integer 32 -" i [31:0] $end
$var integer 32 ." k [31:0] $end
$var reg 9 /" m_out [8:0] $end
$var reg 10 0" z_im [9:0] $end
$var reg 1 1" z_nd $end
$var reg 10 2" z_re [9:0] $end
$var reg 10 3" za_im [9:0] $end
$var reg 10 4" za_re [9:0] $end
$var reg 10 5" zb_im [9:0] $end
$var reg 10 6" zb_re [9:0] $end
$upscope $end
$upscope $end
$scope begin genblk1 $end
$upscope $end
$scope begin bf_stage1 $end
$scope module fft_r22sdf_tfm_tm0 $end
$var wire 8 7" c_in [7:0] $end
$var wire 1 F clk $end
$var wire 1 . m_in $end
$var wire 1 ( rst_n $end
$var wire 10 8" w_im [9:0] $end
$var wire 10 9" w_re [9:0] $end
$var wire 10 :" x_im [9:0] $end
$var wire 1 0 x_nd $end
$var wire 10 ;" x_re [9:0] $end
$var reg 8 <" c_out [7:0] $end
$var integer 32 =" i [31:0] $end
$var reg 1 >" m_out $end
$var reg 3 ?" ppln_nd [2:0] $end
$var reg 10 @" z_im [9:0] $end
$var reg 1 A" z_nd $end
$var reg 10 B" z_re [9:0] $end
$upscope $end
$scope module fft_r22sdf_bf2_s1 $end
$var wire 8 C" bf2i_ccntr [7:0] $end
$var wire 1 D" bf2i_meta $end
$var wire 11 E" bf2i_z_im [10:0] $end
$var wire 1 F" bf2i_z_nd $end
$var wire 11 G" bf2i_z_re [10:0] $end
$var wire 8 H" c_in [7:0] $end
$var wire 8 I" c_out [7:0] $end
$var wire 1 F clk $end
$var wire 1 Q m_in $end
$var wire 1 3 m_out $end
$var wire 1 ( rst_n $end
$var wire 10 J" x_im [9:0] $end
$var wire 1 S x_nd $end
$var wire 10 K" x_re [9:0] $end
$var wire 12 L" z_im [11:0] $end
$var wire 1 5 z_nd $end
$var wire 12 M" z_re [11:0] $end
$scope module fft_r22sdf_bf2i_u1 $end
$var wire 1 F clk $end
$var wire 9 N" m_in [8:0] $end
$var wire 1 ( rst_n $end
$var wire 1 O" sel $end
$var wire 10 P" x_im [9:0] $end
$var wire 1 S x_nd $end
$var wire 10 Q" x_re [9:0] $end
$var wire 11 R" xa_im [10:0] $end
$var wire 11 S" xa_re [10:0] $end
$var wire 11 T" xb_im [10:0] $end
$var wire 11 U" xb_re [10:0] $end
$var integer 32 V" i [31:0] $end
$var integer 32 W" k [31:0] $end
$var reg 9 X" m_out [8:0] $end
$var reg 11 Y" z_im [10:0] $end
$var reg 1 Z" z_nd $end
$var reg 11 [" z_re [10:0] $end
$var reg 11 \" za_im [10:0] $end
$var reg 11 ]" za_re [10:0] $end
$var reg 11 ^" zb_im [10:0] $end
$var reg 11 _" zb_re [10:0] $end
$upscope $end
$scope module fft_r22sdf_bf2ii_u1 $end
$var wire 1 F clk $end
$var wire 9 `" m_in [8:0] $end
$var wire 1 ( rst_n $end
$var wire 1 a" sel $end
$var wire 1 b" tgl $end
$var wire 11 c" x_im [10:0] $end
$var wire 1 F" x_nd $end
$var wire 11 d" x_re [10:0] $end
$var wire 12 e" xa_im [11:0] $end
$var wire 12 f" xa_re [11:0] $end
$var wire 12 g" xb_im [11:0] $end
$var wire 12 h" xb_re [11:0] $end
$var integer 32 i" i [31:0] $end
$var integer 32 j" k [31:0] $end
$var reg 9 k" m_out [8:0] $end
$var reg 12 l" z_im [11:0] $end
$var reg 1 m" z_nd $end
$var reg 12 n" z_re [11:0] $end
$var reg 12 o" za_im [11:0] $end
$var reg 12 p" za_re [11:0] $end
$var reg 12 q" zb_im [11:0] $end
$var reg 12 r" zb_re [11:0] $end
$upscope $end
$upscope $end
$upscope $end
$scope begin bf_stage2 $end
$scope module fft_r22sdf_tfm_tm1 $end
$var wire 8 s" c_in [7:0] $end
$var wire 1 F clk $end
$var wire 1 3 m_in $end
$var wire 1 ( rst_n $end
$var wire 10 t" w_im [9:0] $end
$var wire 10 u" w_re [9:0] $end
$var wire 12 v" x_im [11:0] $end
$var wire 1 5 x_nd $end
$var wire 12 w" x_re [11:0] $end
$var reg 8 x" c_out [7:0] $end
$var integer 32 y" i [31:0] $end
$var reg 1 z" m_out $end
$var reg 3 {" ppln_nd [2:0] $end
$var reg 12 |" z_im [11:0] $end
$var reg 1 }" z_nd $end
$var reg 12 ~" z_re [11:0] $end
$upscope $end
$scope module fft_r22sdf_bf2_s2 $end
$var wire 8 !# bf2i_ccntr [7:0] $end
$var wire 1 "# bf2i_meta $end
$var wire 13 ## bf2i_z_im [12:0] $end
$var wire 1 $# bf2i_z_nd $end
$var wire 13 %# bf2i_z_re [12:0] $end
$var wire 8 &# c_in [7:0] $end
$var wire 8 '# c_out [7:0] $end
$var wire 1 F clk $end
$var wire 1 V m_in $end
$var wire 1 8 m_out $end
$var wire 1 ( rst_n $end
$var wire 12 (# x_im [11:0] $end
$var wire 1 X x_nd $end
$var wire 12 )# x_re [11:0] $end
$var wire 14 *# z_im [13:0] $end
$var wire 1 : z_nd $end
$var wire 14 +# z_re [13:0] $end
$scope module fft_r22sdf_bf2i_u1 $end
$var wire 1 F clk $end
$var wire 9 ,# m_in [8:0] $end
$var wire 1 ( rst_n $end
$var wire 1 -# sel $end
$var wire 12 .# x_im [11:0] $end
$var wire 1 X x_nd $end
$var wire 12 /# x_re [11:0] $end
$var wire 13 0# xa_im [12:0] $end
$var wire 13 1# xa_re [12:0] $end
$var wire 13 2# xb_im [12:0] $end
$var wire 13 3# xb_re [12:0] $end
$var integer 32 4# i [31:0] $end
$var integer 32 5# k [31:0] $end
$var reg 9 6# m_out [8:0] $end
$var reg 13 7# z_im [12:0] $end
$var reg 1 8# z_nd $end
$var reg 13 9# z_re [12:0] $end
$var reg 13 :# za_im [12:0] $end
$var reg 13 ;# za_re [12:0] $end
$var reg 13 <# zb_im [12:0] $end
$var reg 13 =# zb_re [12:0] $end
$upscope $end
$scope module fft_r22sdf_bf2ii_u1 $end
$var wire 1 F clk $end
$var wire 9 ># m_in [8:0] $end
$var wire 1 ( rst_n $end
$var wire 1 ?# sel $end
$var wire 1 @# tgl $end
$var wire 13 A# x_im [12:0] $end
$var wire 1 $# x_nd $end
$var wire 13 B# x_re [12:0] $end
$var wire 14 C# xa_im [13:0] $end
$var wire 14 D# xa_re [13:0] $end
$var wire 14 E# xb_im [13:0] $end
$var wire 14 F# xb_re [13:0] $end
$var integer 32 G# i [31:0] $end
$var integer 32 H# k [31:0] $end
$var reg 9 I# m_out [8:0] $end
$var reg 14 J# z_im [13:0] $end
$var reg 1 K# z_nd $end
$var reg 14 L# z_re [13:0] $end
$var reg 14 M# za_im [13:0] $end
$var reg 14 N# za_re [13:0] $end
$var reg 14 O# zb_im [13:0] $end
$var reg 14 P# zb_re [13:0] $end
$upscope $end
$upscope $end
$upscope $end
$scope begin bf_stage3 $end
$scope module fft_r22sdf_tfm_tm2 $end
$var wire 8 Q# c_in [7:0] $end
$var wire 1 F clk $end
$var wire 1 8 m_in $end
$var wire 1 ( rst_n $end
$var wire 10 R# w_im [9:0] $end
$var wire 10 S# w_re [9:0] $end
$var wire 14 T# x_im [13:0] $end
$var wire 1 : x_nd $end
$var wire 14 U# x_re [13:0] $end
$var reg 8 V# c_out [7:0] $end
$var integer 32 W# i [31:0] $end
$var reg 1 X# m_out $end
$var reg 3 Y# ppln_nd [2:0] $end
$var reg 14 Z# z_im [13:0] $end
$var reg 1 [# z_nd $end
$var reg 14 \# z_re [13:0] $end
$upscope $end
$scope module fft_r22sdf_bf2_s3 $end
$var wire 8 ]# bf2i_ccntr [7:0] $end
$var wire 1 ^# bf2i_meta $end
$var wire 15 _# bf2i_z_im [14:0] $end
$var wire 1 `# bf2i_z_nd $end
$var wire 15 a# bf2i_z_re [14:0] $end
$var wire 8 b# c_in [7:0] $end
$var wire 8 c# c_out [7:0] $end
$var wire 1 F clk $end
$var wire 1 [ m_in $end
$var wire 1 = m_out $end
$var wire 1 ( rst_n $end
$var wire 14 d# x_im [13:0] $end
$var wire 1 ] x_nd $end
$var wire 14 e# x_re [13:0] $end
$var wire 16 f# z_im [15:0] $end
$var wire 1 ? z_nd $end
$var wire 16 g# z_re [15:0] $end
$scope module fft_r22sdf_bf2i_u1 $end
$var wire 1 F clk $end
$var wire 9 h# m_in [8:0] $end
$var wire 1 ( rst_n $end
$var wire 1 i# sel $end
$var wire 14 j# x_im [13:0] $end
$var wire 1 ] x_nd $end
$var wire 14 k# x_re [13:0] $end
$var wire 15 l# xa_im [14:0] $end
$var wire 15 m# xa_re [14:0] $end
$var wire 15 n# xb_im [14:0] $end
$var wire 15 o# xb_re [14:0] $end
$var integer 32 p# i [31:0] $end
$var integer 32 q# k [31:0] $end
$var reg 9 r# m_out [8:0] $end
$var reg 15 s# z_im [14:0] $end
$var reg 1 t# z_nd $end
$var reg 15 u# z_re [14:0] $end
$var reg 15 v# za_im [14:0] $end
$var reg 15 w# za_re [14:0] $end
$var reg 15 x# zb_im [14:0] $end
$var reg 15 y# zb_re [14:0] $end
$upscope $end
$scope module fft_r22sdf_bf2ii_u1 $end
$var wire 1 F clk $end
$var wire 9 z# m_in [8:0] $end
$var wire 1 ( rst_n $end
$var wire 1 {# sel $end
$var wire 1 |# tgl $end
$var wire 15 }# x_im [14:0] $end
$var wire 1 `# x_nd $end
$var wire 15 ~# x_re [14:0] $end
$var wire 16 !$ xa_im [15:0] $end
$var wire 16 "$ xa_re [15:0] $end
$var wire 16 #$ xb_im [15:0] $end
$var wire 16 $$ xb_re [15:0] $end
$var integer 32 %$ i [31:0] $end
$var integer 32 &$ k [31:0] $end
$var reg 9 '$ m_out [8:0] $end
$var reg 16 ($ z_im [15:0] $end
$var reg 1 )$ z_nd $end
$var reg 16 *$ z_re [15:0] $end
$var reg 16 +$ za_im [15:0] $end
$var reg 16 ,$ za_re [15:0] $end
$var reg 16 -$ zb_im [15:0] $end
$var reg 16 .$ zb_re [15:0] $end
$upscope $end
$upscope $end
$upscope $end
$scope begin genblk7 $end
$scope module fft_r22sdf_rom_256_s0_u1 $end
$var wire 8 /$ addr [7:0] $end
$var wire 1 0 addr_vld $end
$var wire 1 F clk $end
$var wire 1 ( rst_n $end
$var wire 10 0$ tf_im [9:0] $end
$var wire 10 1$ tf_re [9:0] $end
$var reg 20 2$ dout [19:0] $end
$upscope $end
$scope module fft_r22sdf_rom_256_s1_u1 $end
$var wire 6 3$ addr [5:0] $end
$var wire 1 5 addr_vld $end
$var wire 1 F clk $end
$var wire 1 ( rst_n $end
$var wire 10 4$ tf_im [9:0] $end
$var wire 10 5$ tf_re [9:0] $end
$var reg 20 6$ dout [19:0] $end
$upscope $end
$scope module fft_r22sdf_rom_256_s2_u1 $end
$var wire 4 7$ addr [3:0] $end
$var wire 1 : addr_vld $end
$var wire 1 F clk $end
$var wire 1 ( rst_n $end
$var wire 10 8$ tf_im [9:0] $end
$var wire 10 9$ tf_re [9:0] $end
$var reg 20 :$ dout [19:0] $end
$upscope $end
$upscope $end
$upscope $end
$scope module xct_u1 $end
$var wire 1 F clk $end
$var wire 1 ' done $end
$var integer 32 ;$ ccntr [31:0] $end
$var reg 8 <$ d_in_i [7:0] $end
$var reg 1 =$ d_in_nd $end
$var reg 8 >$ d_in_q [7:0] $end
$var integer 32 ?$ gcntr [31:0] $end
$var integer 32 @$ i [31:0] $end
$var reg 1 A$ rst_n $end
$var reg 1 B$ send_next_d_in $end
$var integer 32 C$ tvin_len [31:0] $end
$var integer 32 D$ tvin_mem_addr [31:0] $end
$var integer 32 E$ wcntr [31:0] $end
$var reg 1 F$ xct_ce $end
$scope task clk_delay $end
$var integer 32 G$ num_delay_cycles [31:0] $end
$upscope $end
$scope task gen_reset $end
$upscope $end
$scope task load_tvin $end
$var reg 2048 H$ file_name [2048:1] $end
$scope begin load_tvin_task $end
$var integer 32 I$ file [31:0] $end
$var integer 32 J$ n_items_read [31:0] $end
$var reg 1 K$ read_done $end
$var reg 8 L$ tvin_i [7:0] $end
$var reg 8 M$ tvin_q [7:0] $end
$upscope $end
$upscope $end
$scope task run_fft $end
$upscope $end
$upscope $end
$scope module mon_u1 $end
$var wire 8 N$ bin_id_rev [7:0] $end
$var wire 1 F clk $end
$var wire 16 O$ d_out_i [15:0] $end
$var wire 1 % d_out_nd $end
$var wire 16 P$ d_out_q [15:0] $end
$var wire 1 ( rst_n $end
$var reg 8 Q$ bin_id [7:0] $end
$var reg 8 R$ blk_id [7:0] $end
$var reg 1 S$ done $end
$scope begin gen_bit_rev[0] $end
$upscope $end
$scope begin gen_bit_rev[1] $end
$upscope $end
$scope begin gen_bit_rev[2] $end
$upscope $end
$scope begin gen_bit_rev[3] $end
$upscope $end
$scope begin gen_bit_rev[4] $end
$upscope $end
$scope begin gen_bit_rev[5] $end
$upscope $end
$scope begin gen_bit_rev[6] $end
$upscope $end
$scope begin gen_bit_rev[7] $end
$upscope $end
$upscope $end
$scope begin tb_main $end
$var reg 2048 T$ tvin_file [2048:1] $end
$upscope $end
$upscope $end
$scope module math $end
$scope function round $end
$var integer 32 U$ n [31:0] $end
$var integer 32 V$ v_tmp2 [31:0] $end
$var real 1 W$ round $end
$var real 1 X$ v $end
$var real 1 Y$ v_tmp1 $end
$scope begin round_fnc $end
$upscope $end
$upscope $end
$upscope $end
$scope module ut $end
$var integer 32 Z$ stdout [31:0] $end
$var integer 32 [$ tvout_chan [31:0] $end
$scope begin tvout_open $end
$var reg 4096 \$ ut_tvout_file [4095:0] $end
$upscope $end
$upscope $end
$enddefinitions $end
#0
$dumpvars
bx \$
b10000000000000000000000000000001 [$
b10000000000000000000000000000001 Z$
r0 Y$
r0 X$
r0 W$
bx V$
bx U$
bx T$
0S$
b0 R$
b0 Q$
b0 P$
b0 O$
b0 N$
bx M$
bx L$
xK$
bx J$
bx I$
bx H$
b1 G$
0F$
b10 E$
b0 D$
b0 C$
1B$
1A$
b10000000000000000 @$
b100 ?$
bx >$
0=$
bx <$
b0 ;$
b0 :$
b0 9$
b0 8$
b101 7$
b0 6$
b0 5$
b0 4$
b10001 3$
b0 2$
b0 1$
b0 0$
b1000001 /$
b0 .$
b0 -$
b0 ,$
b0 +$
b0 *$
0)$
b0 ($
b0 '$
bx &$
b1 %$
b0 $$
b0 #$
b0 "$
b0 !$
b0 ~#
b0 }#
x|#
x{#
bx0 z#
b0 y#
b0 x#
b0 w#
b0 v#
b0 u#
0t#
b0 s#
bx0 r#
bx q#
b10 p#
b0 o#
b0 n#
b0 m#
b0 l#
b0 k#
b0 j#
0i#
b0 h#
b0 g#
b0 f#
b0 e#
b0 d#
b0 c#
b0 b#
b0 a#
0`#
b0 _#
0^#
bx ]#
b0 \#
0[#
b0 Z#
b0 Y#
0X#
b11 W#
b0 V#
b0 U#
b0 T#
b0 S#
b0 R#
b0 Q#
b0 P#
b0 O#
b0 N#
b0 M#
b0 L#
0K#
b0 J#
b0 I#
bx H#
b100 G#
b0 F#
b0 E#
b0 D#
b0 C#
b0 B#
b0 A#
x@#
x?#
bx0 >#
b0 =#
b0 <#
b0 ;#
b0 :#
b0 9#
08#
b0 7#
bx0 6#
bx 5#
b1000 4#
b0 3#
b0 2#
b0 1#
b0 0#
b0 /#
b0 .#
0-#
b0 ,#
b0 +#
b0 *#
b0 )#
b0 (#
b0 '#
b0 &#
b0 %#
0$#
b0 ##
0"#
bx !#
b0 ~"
0}"
b0 |"
b0 {"
0z"
b11 y"
b0 x"
b0 w"
b0 v"
b0 u"
b0 t"
b0 s"
b0 r"
b0 q"
b0 p"
b0 o"
b0 n"
0m"
b0 l"
b0 k"
bx j"
b10000 i"
b0 h"
b0 g"
b0 f"
b0 e"
b0 d"
b0 c"
xb"
xa"
bx0 `"
b0 _"
b0 ^"
b0 ]"
b0 \"
b0 ["
0Z"
b0 Y"
bx0 X"
bx W"
b100000 V"
b0 U"
b0 T"
b0 S"
b0 R"
b0 Q"
b0 P"
0O"
b0 N"
b0 M"
b0 L"
b0 K"
b0 J"
b0 I"
b0 H"
b0 G"
0F"
b0 E"
0D"
bx C"
b0 B"
0A"
b0 @"
b0 ?"
0>"
b11 ="
b0 <"
b0 ;"
b0 :"
b0 9"
b0 8"
b0 7"
b0 6"
b0 5"
b0 4"
b0 3"
b0 2"
01"
b0 0"
b0 /"
bx ."
b1000000 -"
b0 ,"
b0 +"
b0 *"
b0 )"
b0 ("
b0 '"
0&"
0%"
b0 $"
bx #"
bx ""
b0 !"
b0 ~
b0 }
0|
b0 {
b0 z
bx y
b10000000 x
bx w
bx v
b0 u
b0 t
bx s
bx r
0q
b0 p
b0 o
b0 n
bx m
bx l
b0 k
b0 j
b0 i
0h
b0 g
0f
b0 e
0d
b0 c
0b
0a
b0 `
b0 _
b0 ^
0]
b0 \
0[
b0 Z
b0 Y
0X
b0 W
0V
b0 U
b0 T
0S
b0 R
0Q
b0 P
b0 O
b0 N
b0 M
b0 L
b0 K
b0 J
bx I
0H
bx G
1F
b0 E
0D
0C
b0 B
b0 A
b0 @
0?
b0 >
0=
b0 <
b0 ;
0:
b0 9
08
b0 7
b0 6
05
b0 4
03
b0 2
b0 1
00
b0 /
0.
b0 -
bx ,
bx +
bx *
1)
1(
0'
b0 &
0%
b0 $
bx #
0"
bx !
$end
#5
0)
0F
#10
0|#
0{#
bx 7$
0@#
0?#
bx 3$
0b"
0a"
bx A
bx <
bx c#
b0 z#
b0 ]#
bx 7
bx '#
bx Q#
b0 >#
b0 !#
bx 2
bx I"
bx s"
b0 `"
b0 C"
b11 ?$
bx0 '$
b0 r#
b0 Y#
bx0 I#
b0 6#
b0 {"
bx0 k"
b0 X"
b0 ?"
b10 G$
1)
1F
#15
0)
0F
#20
b10001 3$
b101 7$
b0 2
b0 I"
b0 s"
b0 7
b0 '#
b0 Q#
b0 A
b0 <
b0 c#
b0 ?"
b0 k"
b0 {"
b0 I#
b0 Y#
b0 '$
b10 ?$
1)
1F
#25
0)
0F
#30
b0 ""
b1 #"
b1 ?$
b1 D$
1=$
1"
b0 >$
b0 v
b0 #
b0 G
b0 l
b0 r
b1 <$
b1 w
b1 !
b1 I
b1 m
b1 s
b0 Y#
b0 {"
b0 ?"
1F$
b10001011100101 C$
b11111111111111111111111111111111 J$
b11011010 M$
b11111111 L$
b10000000000000000000000000000011 I$
1K$
b1011100010111101110100011101100110100101101110001011110110011001100110011101000011001000110101001101100101111101110100011101100011000000101110011001000110000101110100 H$
b1011100010111101110100011101100110100101101110001011110110011001100110011101000011001000110101001101100101111101110100011101100011000000101110011001000110000101110100 T$
1)
1F
#35
0)
0F
#40
b0 #"
b0 ?"
b0 {"
b0 Y#
1|
1h
b1 _
b1 j
b10 p
b10 D$
b0 <$
b0 w
b0 !
b0 I
b0 m
b0 s
b0 ?$
b10000000 y
1)
1F
#45
0)
0F
#50
b10 $"
b1 e
xi#
x-#
b1 E$
0B$
b11 D$
b10 _
b10 j
b100 p
11"
10
b10 z
bx V#
bx0 h#
bx Z
bx b#
b0 Y#
bx x"
bx0 ,#
bx U
bx &#
b0 {"
b0 ?"
b1000000 ."
b10000000 y
1)
1F
#55
0)
0F
#60
x@#
x?#
x|#
x{#
0-#
bx0 >#
bx !#
0i#
bx0 z#
bx ]#
b111111111 K
b111111111 9"
b111111111 1$
b1111100111 J
b1111100111 8"
b1111100111 0$
b100 $"
b10 e
b1000010 /$
b1 -
b1 k
b1 7"
bx ""
bx #"
b1 ?"
b0 x"
b0 ,#
b0 U
b0 &#
b0 {"
bx0 6#
b0 V#
b0 h#
b0 Z
b0 b#
b0 Y#
bx0 r#
b1111111111111100111 2$
b100 z
b10 /"
b11 _
b11 j
b110 p
0=$
0"
bx >$
bx v
bx #
bx G
bx l
bx r
bx <$
bx w
bx !
bx I
bx m
bx s
b0 E$
b10000000 y
b1000000 ."
1)
1F
#65
0)
0F
#70
0|#
0{#
bx 7$
0@#
0?#
b1000011 /$
b10 -
b10 k
b10 7"
b110 $"
b11 e
b111111110 K
b111111110 9"
b111111110 1$
b1111001110 J
b1111001110 8"
b1111001110 0$
bx A
bx <
bx c#
b0 z#
b0 ]#
bx 7
bx '#
bx Q#
b0 >#
b0 !#
b10 E$
b1001 ?$
b100 /"
0|
0h
b110 z
b1111111101111001110 2$
bx0 '$
b0 r#
b0 Y#
bx0 I#
b0 6#
b0 {"
b11 ?"
b1000000 ."
1)
1F
#75
0)
0F
#80
b101 7$
b0 7
b0 '#
b0 Q#
b0 A
b0 <
b0 c#
b111111010 K
b111111010 9"
b111111010 1$
b1110110101 J
b1110110101 8"
b1110110101 0$
b1000100 /$
b11 -
b11 k
b11 7"
b111 ?"
b0 {"
b0 I#
b0 Y#
b0 '$
b1111110101110110101 2$
01"
00
b110 /"
b1000 ?$
1B$
1)
1F
#85
0)
0F
#90
b0 ""
b0 #"
b111 ?$
b100 D$
1=$
1"
b0 >$
b0 v
b0 #
b0 G
b0 l
b0 r
b0 <$
b0 w
b0 !
b0 I
b0 m
b0 s
b0 Y#
b0 {"
1A"
1S
b110 ?"
1)
1F
#95
0)
0F
#100
b1 <"
b10 N"
b1 P
b1 H"
b100 ?"
1Z"
1F"
b0 {"
b0 Y#
1|
1h
b100 _
b100 j
b1000 p
b101 D$
b110 ?$
b100000 W"
b10000000 y
1)
1F
#105
0)
0F
#110
b1000 $"
b100 e
xi#
b10 `"
b1 C"
b101 ?$
b110 D$
b101 _
b101 j
b1010 p
11"
10
b1000 z
bx V#
bx0 h#
bx Z
bx b#
b0 Y#
b0 {"
1m"
15
b10 X"
b10 <"
b100 N"
b10 P
b10 H"
b0 ?"
b1000000 ."
b10000000 y
b10000 j"
b100000 W"
1)
1F
#115
0)
0F
#120
b10010 3$
x|#
x{#
b100 `"
b10 C"
b1 2
b1 I"
b1 s"
0i#
bx0 z#
bx ]#
b111110110 K
b111110110 9"
b111110110 1$
b1110011100 J
b1110011100 8"
b1110011100 0$
b111110110 M
b111110110 u"
b111110110 5$
b1110011100 L
b1110011100 t"
b1110011100 4$
b1010 $"
b101 e
b1000101 /$
b100 -
b100 k
b100 7"
0A"
0S
b11 <"
b110 N"
b11 P
b11 H"
b1 ?"
b100 X"
b10 k"
b1 {"
b0 V#
b0 h#
b0 Z
b0 b#
b0 Y#
bx0 r#
b1111101101110011100 2$
b1111101101110011100 6$
b1010 z
b1000 /"
b110 _
b110 j
b1100 p
b111 D$
b100 ?$
b100000 W"
b10000 j"
b10000000 y
b1000000 ."
1)
1F
#125
0)
0F
#130
0|#
0{#
b10011 3$
b1000110 /$
b101 -
b101 k
b101 7"
b1100 $"
b110 e
b111011001 M
b111011001 u"
b111011001 5$
b1100111100 L
b1100111100 t"
b1100111100 4$
b111110001 K
b111110001 9"
b111110001 1$
b1110000100 J
b1110000100 8"
b1110000100 0$
bx A
bx <
bx c#
b0 z#
b0 ]#
b10 2
b10 I"
b10 s"
b110 `"
b11 C"
b11 ?$
b1000 D$
b111 _
b111 j
b1110 p
b1010 /"
b1100 z
b1110110011100111100 6$
b1111100011110000100 2$
bx0 '$
b0 r#
b0 Y#
b11 {"
b100 k"
0Z"
0F"
b110 X"
b11 ?"
b1000000 ."
b10000000 y
b10000 j"
1)
1F
#135
0)
0F
#140
b10100 3$
b11 2
b11 I"
b11 s"
b0 A
b0 <
b0 c#
b111101010 K
b111101010 9"
b111101010 1$
b1101101011 J
b1101101011 8"
b1101101011 0$
b110101010 M
b110101010 u"
b110101010 5$
b1011100100 L
b1011100100 t"
b1011100100 4$
b1110 $"
b111 e
b1000111 /$
b110 -
b110 k
b110 7"
b111 ?"
0m"
05
b110 k"
b111 {"
b0 Y#
b0 '$
b1111010101101101011 2$
b1101010101011100100 6$
b1110 z
b1100 /"
b1000 _
b1000 j
b10000 p
b1001 D$
b10 ?$
b10000000 y
b1000000 ."
1)
1F
#145
0)
0F
#150
b1001000 /$
b111 -
b111 k
b111 7"
b10000 $"
b1000 e
b111100010 K
b111100010 9"
b111100010 1$
b1101010100 J
b1101010100 8"
b1101010100 0$
b1 ?$
b1010 D$
b1001 _
b1001 j
b10010 p
b1110 /"
b10000 z
b1111000101101010100 2$
b0 Y#
1}"
1X
b110 {"
1A"
1S
b111 ?"
b1000000 ."
b10000000 y
1)
1F
#155
0)
0F
#160
b111011001 K
b111011001 9"
b111011001 1$
b1100111100 J
b1100111100 8"
b1100111100 0$
b10010 $"
b1001 e
b1001001 /$
b1000 -
b1000 k
b1000 7"
b100 <"
b1000 N"
b100 P
b100 H"
b111 ?"
1Z"
1F"
b1 x"
b10 ,#
b1 U
b1 &#
b100 {"
18#
1$#
b0 Y#
b1110110011100111100 2$
b10010 z
b10000 /"
b1010 _
b1010 j
b10100 p
b1011 D$
b0 ?$
b100000 W"
b1000 5#
b10000000 y
b1000000 ."
1)
1F
#165
0)
0F
